2 Data – Asthma and Pollution Outcomes in California
…
Code

saveRDS(aqi_ca, "aqi_ca.rds")

Code

# Sanity check
aqi_ca |> count(year)

# A tibble: 24 × 2
    year     n
   <dbl> <int>
 1  2000    56
 2  2001    55
 3  2002    54
 4  2003    54
 5  2004    53
 6  2005    53
 7  2006    53
 8  2007    53
 9  2008    53
10  2009    53
# ℹ 14 more rows

Code

aqi_ca |> count(county)

# A tibble: 57 × 2
   county           n
   <chr>        <int>
 1 Alameda         24
 2 Alpine           6
 3 Amador          24
 4 Butte           24
 5 Calaveras       24
 6 Colusa          24
 7 Contra Costa    24
 8 Del Norte       24
 9 El Dorado       24
10 Fresno          24
# ℹ 47 more rows
…
